<svg width="14" height="16" viewBox="0 0 14 16" fill="none" xmlns="http://www.w3.org/2000/svg">
<path d="M13.5 9.5C13.5 8.21875 13.0938 7 12.4375 5.96875H12.4688L13.375 5.03125C13.5312 4.90625 13.5312 4.65625 13.375 4.5L12.5 3.625C12.3438 3.46875 12.0938 3.46875 11.9688 3.625L11.0938 4.5C10.2188 3.78125 9.15625 3.28125 8 3.09375V2H8.875C9.0625 2 9.25 1.84375 9.25 1.625V0.375C9.25 0.1875 9.0625 0 8.875 0H5.125C4.90625 0 4.75 0.1875 4.75 0.375V1.625C4.75 1.84375 4.90625 2 5.125 2H6V3.09375C2.875 3.5625 0.5 6.25 0.5 9.5C0.5 13.0938 3.40625 16 7 16C10.5625 16 13.5 13.0938 13.5 9.5ZM8 10.625C8 10.8438 7.8125 11 7.625 11H6.375C6.15625 11 6 10.8438 6 10.625V5.90625C6 5.6875 6.15625 5.53125 6.375 5.53125H7.625C7.8125 5.53125 8 5.6875 8 5.90625V10.625Z" fill="url(#paint0_linear)"/>
<defs>
<linearGradient id="paint0_linear" x1="1.91025e-07" y1="47.923" x2="-1.07225e-05" y2="-4.29846" gradientUnits="userSpaceOnUse">
<stop stop-color="#FFA12E"/>
<stop offset="1" stop-color="#FFD251"/>
</linearGradient>
</defs>
</svg>
